{
  "title" : "Ctrl (Deluxe)",
  "items" : [ {
    "artists" : [ {
      "external_urls" : {
        "spotify" : "https://open.spotify.com/artist/7tYKF4w9nC0nq9CsPZTHyP"
      },
      "href" : "https://api.spotify.com/v1/artists/7tYKF4w9nC0nq9CsPZTHyP",
      "id" : "7tYKF4w9nC0nq9CsPZTHyP",
      "name" : "SZA",
      "type" : "artist",
      "uri" : "spotify:artist:7tYKF4w9nC0nq9CsPZTHyP"
    } ],
    "disc_number" : 1,
    "duration_ms" : 181120,
    "explicit" : true,
    "external_urls" : {
      "spotify" : "https://open.spotify.com/track/3lw0PaZdGkvCwTaiatHbnU"
    },
    "href" : "https://api.spotify.com/v1/tracks/3lw0PaZdGkvCwTaiatHbnU",
    "id" : "3lw0PaZdGkvCwTaiatHbnU",
    "is_local" : false,
    "name" : "Supermodel",
    "preview_url" : "https://p.scdn.co/mp3-preview/1292e5c18ab2f9f75dd6ca4ce011c733aa0bafea?cid=90ccb367fd954d3fbd50187031285f39",
    "track_number" : 1,
    "type" : "track",
    "uri" : "spotify:track:3lw0PaZdGkvCwTaiatHbnU"
  }, {
    "artists" : [ {
      "external_urls" : {
        "spotify" : "https://open.spotify.com/artist/7tYKF4w9nC0nq9CsPZTHyP"
      },
      "href" : "https://api.spotify.com/v1/artists/7tYKF4w9nC0nq9CsPZTHyP",
      "id" : "7tYKF4w9nC0nq9CsPZTHyP",
      "name" : "SZA",
      "type" : "artist",
      "uri" : "spotify:artist:7tYKF4w9nC0nq9CsPZTHyP"
    }, {
      "external_urls" : {
        "spotify" : "https://open.spotify.com/artist/0Y5tJX1MQlPlqiwlOH1tJY"
      },
      "href" : "https://api.spotify.com/v1/artists/0Y5tJX1MQlPlqiwlOH1tJY",
      "id" : "0Y5tJX1MQlPlqiwlOH1tJY",
      "name" : "Travis Scott",
      "type" : "artist",
      "uri" : "spotify:artist:0Y5tJX1MQlPlqiwlOH1tJY"
    } ],
    "disc_number" : 1,
    "duration_ms" : 275080,
    "explicit" : true,
    "external_urls" : {
      "spotify" : "https://open.spotify.com/track/7HhtNlYNI32WY6n0ISX0U1"
    },
    "href" : "https://api.spotify.com/v1/tracks/7HhtNlYNI32WY6n0ISX0U1",
    "id" : "7HhtNlYNI32WY6n0ISX0U1",
    "is_local" : false,
    "name" : "Love Galore (feat. Travis Scott)",
    "preview_url" : "https://p.scdn.co/mp3-preview/e3f2a5f8e8910d69754b3d80abdeccac3df9077b?cid=90ccb367fd954d3fbd50187031285f39",
    "track_number" : 2,
    "type" : "track",
    "uri" : "spotify:track:7HhtNlYNI32WY6n0ISX0U1"
  }, {
    "artists" : [ {
      "external_urls" : {
        "spotify" : "https://open.spotify.com/artist/7tYKF4w9nC0nq9CsPZTHyP"
      },
      "href" : "https://api.spotify.com/v1/artists/7tYKF4w9nC0nq9CsPZTHyP",
      "id" : "7tYKF4w9nC0nq9CsPZTHyP",
      "name" : "SZA",
      "type" : "artist",
      "uri" : "spotify:artist:7tYKF4w9nC0nq9CsPZTHyP"
    }, {
      "external_urls" : {
        "spotify" : "https://open.spotify.com/artist/2YZyLoL8N0Wb9xBt1NhZWg"
      },
      "href" : "https://api.spotify.com/v1/artists/2YZyLoL8N0Wb9xBt1NhZWg",
      "id" : "2YZyLoL8N0Wb9xBt1NhZWg",
      "name" : "Kendrick Lamar",
      "type" : "artist",
      "uri" : "spotify:artist:2YZyLoL8N0Wb9xBt1NhZWg"
    } ],
    "disc_number" : 1,
    "duration_ms" : 266080,
    "explicit" : true,
    "external_urls" : {
      "spotify" : "https://open.spotify.com/track/0JijvZALkvx7uonQdvXXpH"
    },
    "href" : "https://api.spotify.com/v1/tracks/0JijvZALkvx7uonQdvXXpH",
    "id" : "0JijvZALkvx7uonQdvXXpH",
    "is_local" : false,
    "name" : "Doves In The Wind (feat. Kendrick Lamar)",
    "preview_url" : "https://p.scdn.co/mp3-preview/607cb83912cafdaefade9ff240670b9e5679edae?cid=90ccb367fd954d3fbd50187031285f39",
    "track_number" : 3,
    "type" : "track",
    "uri" : "spotify:track:0JijvZALkvx7uonQdvXXpH"
  }, {
    "artists" : [ {
      "external_urls" : {
        "spotify" : "https://open.spotify.com/artist/7tYKF4w9nC0nq9CsPZTHyP"
      },
      "href" : "https://api.spotify.com/v1/artists/7tYKF4w9nC0nq9CsPZTHyP",
      "id" : "7tYKF4w9nC0nq9CsPZTHyP",
      "name" : "SZA",
      "type" : "artist",
      "uri" : "spotify:artist:7tYKF4w9nC0nq9CsPZTHyP"
    } ],
    "disc_number" : 1,
    "duration_ms" : 231400,
    "explicit" : true,
    "external_urls" : {
      "spotify" : "https://open.spotify.com/track/5L7sgpCZgrcqpgh1xM7r6V"
    },
    "href" : "https://api.spotify.com/v1/tracks/5L7sgpCZgrcqpgh1xM7r6V",
    "id" : "5L7sgpCZgrcqpgh1xM7r6V",
    "is_local" : false,
    "name" : "Drew Barrymore",
    "preview_url" : "https://p.scdn.co/mp3-preview/98893dda53ce0bba3995394a3ac7cd4fccec7b7e?cid=90ccb367fd954d3fbd50187031285f39",
    "track_number" : 4,
    "type" : "track",
    "uri" : "spotify:track:5L7sgpCZgrcqpgh1xM7r6V"
  }, {
    "artists" : [ {
      "external_urls" : {
        "spotify" : "https://open.spotify.com/artist/7tYKF4w9nC0nq9CsPZTHyP"
      },
      "href" : "https://api.spotify.com/v1/artists/7tYKF4w9nC0nq9CsPZTHyP",
      "id" : "7tYKF4w9nC0nq9CsPZTHyP",
      "name" : "SZA",
      "type" : "artist",
      "uri" : "spotify:artist:7tYKF4w9nC0nq9CsPZTHyP"
    } ],
    "disc_number" : 1,
    "duration_ms" : 196133,
    "explicit" : true,
    "external_urls" : {
      "spotify" : "https://open.spotify.com/track/5MffAkbuTPBqRdPuPzaEb5"
    },
    "href" : "https://api.spotify.com/v1/tracks/5MffAkbuTPBqRdPuPzaEb5",
    "id" : "5MffAkbuTPBqRdPuPzaEb5",
    "is_local" : false,
    "name" : "Prom",
    "preview_url" : "https://p.scdn.co/mp3-preview/428c9bf13664d161c71f4e250eca99e7f9744ef4?cid=90ccb367fd954d3fbd50187031285f39",
    "track_number" : 5,
    "type" : "track",
    "uri" : "spotify:track:5MffAkbuTPBqRdPuPzaEb5"
  }, {
    "artists" : [ {
      "external_urls" : {
        "spotify" : "https://open.spotify.com/artist/7tYKF4w9nC0nq9CsPZTHyP"
      },
      "href" : "https://api.spotify.com/v1/artists/7tYKF4w9nC0nq9CsPZTHyP",
      "id" : "7tYKF4w9nC0nq9CsPZTHyP",
      "name" : "SZA",
      "type" : "artist",
      "uri" : "spotify:artist:7tYKF4w9nC0nq9CsPZTHyP"
    } ],
    "disc_number" : 1,
    "duration_ms" : 272186,
    "explicit" : true,
    "external_urls" : {
      "spotify" : "https://open.spotify.com/track/61fROeJfnI3OtNQYMpN1gT"
    },
    "href" : "https://api.spotify.com/v1/tracks/61fROeJfnI3OtNQYMpN1gT",
    "id" : "61fROeJfnI3OtNQYMpN1gT",
    "is_local" : false,
    "name" : "The Weekend",
    "preview_url" : "https://p.scdn.co/mp3-preview/4671d1aa1268202225a569c0cfb029ff6e5b8e90?cid=90ccb367fd954d3fbd50187031285f39",
    "track_number" : 6,
    "type" : "track",
    "uri" : "spotify:track:61fROeJfnI3OtNQYMpN1gT"
  }, {
    "artists" : [ {
      "external_urls" : {
        "spotify" : "https://open.spotify.com/artist/7tYKF4w9nC0nq9CsPZTHyP"
      },
      "href" : "https://api.spotify.com/v1/artists/7tYKF4w9nC0nq9CsPZTHyP",
      "id" : "7tYKF4w9nC0nq9CsPZTHyP",
      "name" : "SZA",
      "type" : "artist",
      "uri" : "spotify:artist:7tYKF4w9nC0nq9CsPZTHyP"
    } ],
    "disc_number" : 1,
    "duration_ms" : 161613,
    "explicit" : true,
    "external_urls" : {
      "spotify" : "https://open.spotify.com/track/4U4bI86Jynl9et1eXyEpz6"
    },
    "href" : "https://api.spotify.com/v1/tracks/4U4bI86Jynl9et1eXyEpz6",
    "id" : "4U4bI86Jynl9et1eXyEpz6",
    "is_local" : false,
    "name" : "Go Gina",
    "preview_url" : "https://p.scdn.co/mp3-preview/51af99e464c523d7075230d2eb17ea1e6d6756c0?cid=90ccb367fd954d3fbd50187031285f39",
    "track_number" : 7,
    "type" : "track",
    "uri" : "spotify:track:4U4bI86Jynl9et1eXyEpz6"
  }, {
    "artists" : [ {
      "external_urls" : {
        "spotify" : "https://open.spotify.com/artist/7tYKF4w9nC0nq9CsPZTHyP"
      },
      "href" : "https://api.spotify.com/v1/artists/7tYKF4w9nC0nq9CsPZTHyP",
      "id" : "7tYKF4w9nC0nq9CsPZTHyP",
      "name" : "SZA",
      "type" : "artist",
      "uri" : "spotify:artist:7tYKF4w9nC0nq9CsPZTHyP"
    } ],
    "disc_number" : 1,
    "duration_ms" : 208400,
    "explicit" : true,
    "external_urls" : {
      "spotify" : "https://open.spotify.com/track/6yyxqE2ZdAVuD2qEL76POx"
    },
    "href" : "https://api.spotify.com/v1/tracks/6yyxqE2ZdAVuD2qEL76POx",
    "id" : "6yyxqE2ZdAVuD2qEL76POx",
    "is_local" : false,
    "name" : "Garden (Say It Like Dat)",
    "preview_url" : "https://p.scdn.co/mp3-preview/f40b0d1877a05175b6d3e57407a215f7517828eb?cid=90ccb367fd954d3fbd50187031285f39",
    "track_number" : 8,
    "type" : "track",
    "uri" : "spotify:track:6yyxqE2ZdAVuD2qEL76POx"
  }, {
    "artists" : [ {
      "external_urls" : {
        "spotify" : "https://open.spotify.com/artist/7tYKF4w9nC0nq9CsPZTHyP"
      },
      "href" : "https://api.spotify.com/v1/artists/7tYKF4w9nC0nq9CsPZTHyP",
      "id" : "7tYKF4w9nC0nq9CsPZTHyP",
      "name" : "SZA",
      "type" : "artist",
      "uri" : "spotify:artist:7tYKF4w9nC0nq9CsPZTHyP"
    } ],
    "disc_number" : 1,
    "duration_ms" : 231253,
    "explicit" : true,
    "external_urls" : {
      "spotify" : "https://open.spotify.com/track/5dIkvSrG129dvaQ3xb0M9R"
    },
    "href" : "https://api.spotify.com/v1/tracks/5dIkvSrG129dvaQ3xb0M9R",
    "id" : "5dIkvSrG129dvaQ3xb0M9R",
    "is_local" : false,
    "name" : "Broken Clocks",
    "preview_url" : "https://p.scdn.co/mp3-preview/31432e1f5ec59bd56c4dd83a5b6e5b468d4fbc2c?cid=90ccb367fd954d3fbd50187031285f39",
    "track_number" : 9,
    "type" : "track",
    "uri" : "spotify:track:5dIkvSrG129dvaQ3xb0M9R"
  }, {
    "artists" : [ {
      "external_urls" : {
        "spotify" : "https://open.spotify.com/artist/7tYKF4w9nC0nq9CsPZTHyP"
      },
      "href" : "https://api.spotify.com/v1/artists/7tYKF4w9nC0nq9CsPZTHyP",
      "id" : "7tYKF4w9nC0nq9CsPZTHyP",
      "name" : "SZA",
      "type" : "artist",
      "uri" : "spotify:artist:7tYKF4w9nC0nq9CsPZTHyP"
    } ],
    "disc_number" : 1,
    "duration_ms" : 149320,
    "explicit" : true,
    "external_urls" : {
      "spotify" : "https://open.spotify.com/track/4rbl561Pds0a8d9h0RLaLF"
    },
    "href" : "https://api.spotify.com/v1/tracks/4rbl561Pds0a8d9h0RLaLF",
    "id" : "4rbl561Pds0a8d9h0RLaLF",
    "is_local" : false,
    "name" : "Anything",
    "preview_url" : "https://p.scdn.co/mp3-preview/784929a3f8979f1445f5a5ecf22ed693e8bdddd9?cid=90ccb367fd954d3fbd50187031285f39",
    "track_number" : 10,
    "type" : "track",
    "uri" : "spotify:track:4rbl561Pds0a8d9h0RLaLF"
  }, {
    "artists" : [ {
      "external_urls" : {
        "spotify" : "https://open.spotify.com/artist/7tYKF4w9nC0nq9CsPZTHyP"
      },
      "href" : "https://api.spotify.com/v1/artists/7tYKF4w9nC0nq9CsPZTHyP",
      "id" : "7tYKF4w9nC0nq9CsPZTHyP",
      "name" : "SZA",
      "type" : "artist",
      "uri" : "spotify:artist:7tYKF4w9nC0nq9CsPZTHyP"
    }, {
      "external_urls" : {
        "spotify" : "https://open.spotify.com/artist/5ooSG9S0glqP5ZrqqaHBvT"
      },
      "href" : "https://api.spotify.com/v1/artists/5ooSG9S0glqP5ZrqqaHBvT",
      "id" : "5ooSG9S0glqP5ZrqqaHBvT",
      "name" : "James Fauntleroy",
      "type" : "artist",
      "uri" : "spotify:artist:5ooSG9S0glqP5ZrqqaHBvT"
    } ],
    "disc_number" : 1,
    "duration_ms" : 75800,
    "explicit" : true,
    "external_urls" : {
      "spotify" : "https://open.spotify.com/track/0YPPnLR3TS4ZIAKCQOLZhK"
    },
    "href" : "https://api.spotify.com/v1/tracks/0YPPnLR3TS4ZIAKCQOLZhK",
    "id" : "0YPPnLR3TS4ZIAKCQOLZhK",
    "is_local" : false,
    "name" : "Wavy (Interlude) (feat. James Fauntleroy)",
    "preview_url" : "https://p.scdn.co/mp3-preview/c750e47b4ac56463ea048f99b4db7f849825695c?cid=90ccb367fd954d3fbd50187031285f39",
    "track_number" : 11,
    "type" : "track",
    "uri" : "spotify:track:0YPPnLR3TS4ZIAKCQOLZhK"
  }, {
    "artists" : [ {
      "external_urls" : {
        "spotify" : "https://open.spotify.com/artist/7tYKF4w9nC0nq9CsPZTHyP"
      },
      "href" : "https://api.spotify.com/v1/artists/7tYKF4w9nC0nq9CsPZTHyP",
      "id" : "7tYKF4w9nC0nq9CsPZTHyP",
      "name" : "SZA",
      "type" : "artist",
      "uri" : "spotify:artist:7tYKF4w9nC0nq9CsPZTHyP"
    } ],
    "disc_number" : 1,
    "duration_ms" : 253586,
    "explicit" : true,
    "external_urls" : {
      "spotify" : "https://open.spotify.com/track/1Y7tMWKvFZLCpoX0SINyhP"
    },
    "href" : "https://api.spotify.com/v1/tracks/1Y7tMWKvFZLCpoX0SINyhP",
    "id" : "1Y7tMWKvFZLCpoX0SINyhP",
    "is_local" : false,
    "name" : "Normal Girl",
    "preview_url" : "https://p.scdn.co/mp3-preview/5e8ebc59e9938007def40bf12565decc0d0f6821?cid=90ccb367fd954d3fbd50187031285f39",
    "track_number" : 12,
    "type" : "track",
    "uri" : "spotify:track:1Y7tMWKvFZLCpoX0SINyhP"
  }, {
    "artists" : [ {
      "external_urls" : {
        "spotify" : "https://open.spotify.com/artist/7tYKF4w9nC0nq9CsPZTHyP"
      },
      "href" : "https://api.spotify.com/v1/artists/7tYKF4w9nC0nq9CsPZTHyP",
      "id" : "7tYKF4w9nC0nq9CsPZTHyP",
      "name" : "SZA",
      "type" : "artist",
      "uri" : "spotify:artist:7tYKF4w9nC0nq9CsPZTHyP"
    }, {
      "external_urls" : {
        "spotify" : "https://open.spotify.com/artist/6aaMZ3fcfLv4tEbmY7bjRM"
      },
      "href" : "https://api.spotify.com/v1/artists/6aaMZ3fcfLv4tEbmY7bjRM",
      "id" : "6aaMZ3fcfLv4tEbmY7bjRM",
      "name" : "Isaiah Rashad",
      "type" : "artist",
      "uri" : "spotify:artist:6aaMZ3fcfLv4tEbmY7bjRM"
    } ],
    "disc_number" : 1,
    "duration_ms" : 245946,
    "explicit" : true,
    "external_urls" : {
      "spotify" : "https://open.spotify.com/track/4icqsSm2gIMEMUAcaReA3u"
    },
    "href" : "https://api.spotify.com/v1/tracks/4icqsSm2gIMEMUAcaReA3u",
    "id" : "4icqsSm2gIMEMUAcaReA3u",
    "is_local" : false,
    "name" : "Pretty Little Birds (feat. Isaiah Rashad)",
    "preview_url" : "https://p.scdn.co/mp3-preview/85199f92120eabe665adf3c3ce7e821b1e26ad1e?cid=90ccb367fd954d3fbd50187031285f39",
    "track_number" : 13,
    "type" : "track",
    "uri" : "spotify:track:4icqsSm2gIMEMUAcaReA3u"
  }, {
    "artists" : [ {
      "external_urls" : {
        "spotify" : "https://open.spotify.com/artist/7tYKF4w9nC0nq9CsPZTHyP"
      },
      "href" : "https://api.spotify.com/v1/artists/7tYKF4w9nC0nq9CsPZTHyP",
      "id" : "7tYKF4w9nC0nq9CsPZTHyP",
      "name" : "SZA",
      "type" : "artist",
      "uri" : "spotify:artist:7tYKF4w9nC0nq9CsPZTHyP"
    } ],
    "disc_number" : 1,
    "duration_ms" : 198160,
    "explicit" : true,
    "external_urls" : {
      "spotify" : "https://open.spotify.com/track/0WC7CIZHwPXoFQEbJ721vT"
    },
    "href" : "https://api.spotify.com/v1/tracks/0WC7CIZHwPXoFQEbJ721vT",
    "id" : "0WC7CIZHwPXoFQEbJ721vT",
    "is_local" : false,
    "name" : "20 Something",
    "preview_url" : "https://p.scdn.co/mp3-preview/73b05ffbc3aa444834186ccba7505fffb5d693ff?cid=90ccb367fd954d3fbd50187031285f39",
    "track_number" : 14,
    "type" : "track",
    "uri" : "spotify:track:0WC7CIZHwPXoFQEbJ721vT"
  }, {
    "artists" : [ {
      "external_urls" : {
        "spotify" : "https://open.spotify.com/artist/7tYKF4w9nC0nq9CsPZTHyP"
      },
      "href" : "https://api.spotify.com/v1/artists/7tYKF4w9nC0nq9CsPZTHyP",
      "id" : "7tYKF4w9nC0nq9CsPZTHyP",
      "name" : "SZA",
      "type" : "artist",
      "uri" : "spotify:artist:7tYKF4w9nC0nq9CsPZTHyP"
    } ],
    "disc_number" : 1,
    "duration_ms" : 273777,
    "explicit" : true,
    "external_urls" : {
      "spotify" : "https://open.spotify.com/track/3fcX3E9l1gVnfKeWaEzHHv"
    },
    "href" : "https://api.spotify.com/v1/tracks/3fcX3E9l1gVnfKeWaEzHHv",
    "id" : "3fcX3E9l1gVnfKeWaEzHHv",
    "is_local" : false,
    "name" : "Love Galore (Alt Version)",
    "preview_url" : "https://p.scdn.co/mp3-preview/da967865c82c95a3cdab6cad7c0f9998711ee34b?cid=90ccb367fd954d3fbd50187031285f39",
    "track_number" : 15,
    "type" : "track",
    "uri" : "spotify:track:3fcX3E9l1gVnfKeWaEzHHv"
  }, {
    "artists" : [ {
      "external_urls" : {
        "spotify" : "https://open.spotify.com/artist/7tYKF4w9nC0nq9CsPZTHyP"
      },
      "href" : "https://api.spotify.com/v1/artists/7tYKF4w9nC0nq9CsPZTHyP",
      "id" : "7tYKF4w9nC0nq9CsPZTHyP",
      "name" : "SZA",
      "type" : "artist",
      "uri" : "spotify:artist:7tYKF4w9nC0nq9CsPZTHyP"
    } ],
    "disc_number" : 1,
    "duration_ms" : 242823,
    "explicit" : true,
    "external_urls" : {
      "spotify" : "https://open.spotify.com/track/3vZGtceCbJVh5aDT4XhE0p"
    },
    "href" : "https://api.spotify.com/v1/tracks/3vZGtceCbJVh5aDT4XhE0p",
    "id" : "3vZGtceCbJVh5aDT4XhE0p",
    "is_local" : false,
    "name" : "2AM",
    "preview_url" : "https://p.scdn.co/mp3-preview/82a543a63e1ed5b56a821e1fe278aa20a45f6152?cid=90ccb367fd954d3fbd50187031285f39",
    "track_number" : 16,
    "type" : "track",
    "uri" : "spotify:track:3vZGtceCbJVh5aDT4XhE0p"
  }, {
    "artists" : [ {
      "external_urls" : {
        "spotify" : "https://open.spotify.com/artist/7tYKF4w9nC0nq9CsPZTHyP"
      },
      "href" : "https://api.spotify.com/v1/artists/7tYKF4w9nC0nq9CsPZTHyP",
      "id" : "7tYKF4w9nC0nq9CsPZTHyP",
      "name" : "SZA",
      "type" : "artist",
      "uri" : "spotify:artist:7tYKF4w9nC0nq9CsPZTHyP"
    } ],
    "disc_number" : 1,
    "duration_ms" : 69728,
    "explicit" : true,
    "external_urls" : {
      "spotify" : "https://open.spotify.com/track/4pHy0gmjfpD0Fgond5c4Ta"
    },
    "href" : "https://api.spotify.com/v1/tracks/4pHy0gmjfpD0Fgond5c4Ta",
    "id" : "4pHy0gmjfpD0Fgond5c4Ta",
    "is_local" : false,
    "name" : "Miles",
    "preview_url" : "https://p.scdn.co/mp3-preview/0a3914163577d7b71a55456787136f9304c5f322?cid=90ccb367fd954d3fbd50187031285f39",
    "track_number" : 17,
    "type" : "track",
    "uri" : "spotify:track:4pHy0gmjfpD0Fgond5c4Ta"
  }, {
    "artists" : [ {
      "external_urls" : {
        "spotify" : "https://open.spotify.com/artist/7tYKF4w9nC0nq9CsPZTHyP"
      },
      "href" : "https://api.spotify.com/v1/artists/7tYKF4w9nC0nq9CsPZTHyP",
      "id" : "7tYKF4w9nC0nq9CsPZTHyP",
      "name" : "SZA",
      "type" : "artist",
      "uri" : "spotify:artist:7tYKF4w9nC0nq9CsPZTHyP"
    } ],
    "disc_number" : 1,
    "duration_ms" : 84000,
    "explicit" : true,
    "external_urls" : {
      "spotify" : "https://open.spotify.com/track/4UJuFZ4btsiGqMyFHBRPbo"
    },
    "href" : "https://api.spotify.com/v1/tracks/4UJuFZ4btsiGqMyFHBRPbo",
    "id" : "4UJuFZ4btsiGqMyFHBRPbo",
    "is_local" : false,
    "name" : "Percolator",
    "preview_url" : "https://p.scdn.co/mp3-preview/705f04ca248821a917d975eca2762387b2b6bf4c?cid=90ccb367fd954d3fbd50187031285f39",
    "track_number" : 18,
    "type" : "track",
    "uri" : "spotify:track:4UJuFZ4btsiGqMyFHBRPbo"
  }, {
    "artists" : [ {
      "external_urls" : {
        "spotify" : "https://open.spotify.com/artist/7tYKF4w9nC0nq9CsPZTHyP"
      },
      "href" : "https://api.spotify.com/v1/artists/7tYKF4w9nC0nq9CsPZTHyP",
      "id" : "7tYKF4w9nC0nq9CsPZTHyP",
      "name" : "SZA",
      "type" : "artist",
      "uri" : "spotify:artist:7tYKF4w9nC0nq9CsPZTHyP"
    } ],
    "disc_number" : 1,
    "duration_ms" : 182068,
    "explicit" : true,
    "external_urls" : {
      "spotify" : "https://open.spotify.com/track/7newfXclX39UwWTw2gDswM"
    },
    "href" : "https://api.spotify.com/v1/tracks/7newfXclX39UwWTw2gDswM",
    "id" : "7newfXclX39UwWTw2gDswM",
    "is_local" : false,
    "name" : "Tread Carefully",
    "preview_url" : "https://p.scdn.co/mp3-preview/63332d048207dfd95eb74181cb90514a377bcbc2?cid=90ccb367fd954d3fbd50187031285f39",
    "track_number" : 19,
    "type" : "track",
    "uri" : "spotify:track:7newfXclX39UwWTw2gDswM"
  }, {
    "artists" : [ {
      "external_urls" : {
        "spotify" : "https://open.spotify.com/artist/7tYKF4w9nC0nq9CsPZTHyP"
      },
      "href" : "https://api.spotify.com/v1/artists/7tYKF4w9nC0nq9CsPZTHyP",
      "id" : "7tYKF4w9nC0nq9CsPZTHyP",
      "name" : "SZA",
      "type" : "artist",
      "uri" : "spotify:artist:7tYKF4w9nC0nq9CsPZTHyP"
    } ],
    "disc_number" : 1,
    "duration_ms" : 178000,
    "explicit" : true,
    "external_urls" : {
      "spotify" : "https://open.spotify.com/track/2xZ0zfuDTv5LxLhEgD82PG"
    },
    "href" : "https://api.spotify.com/v1/tracks/2xZ0zfuDTv5LxLhEgD82PG",
    "id" : "2xZ0zfuDTv5LxLhEgD82PG",
    "is_local" : false,
    "name" : "Awkward",
    "preview_url" : "https://p.scdn.co/mp3-preview/99a14fda9183d4890cd453bf9dd1d73cb2d541b9?cid=90ccb367fd954d3fbd50187031285f39",
    "track_number" : 20,
    "type" : "track",
    "uri" : "spotify:track:2xZ0zfuDTv5LxLhEgD82PG"
  } ],
  "limit" : 20,
  "next" : "https://api.spotify.com/v1/albums/6FKP2O0oOvZlDkF0gyTjiJ/tracks?offset=20&limit=20",
  "offset" : 0,
  "previous" : null,
  "total" : 21
}