{
  "title" : "SOS",
  "items" : [ {
    "artists" : [ {
      "external_urls" : {
        "spotify" : "https://open.spotify.com/artist/7tYKF4w9nC0nq9CsPZTHyP"
      },
      "href" : "https://api.spotify.com/v1/artists/7tYKF4w9nC0nq9CsPZTHyP",
      "id" : "7tYKF4w9nC0nq9CsPZTHyP",
      "name" : "SZA",
      "type" : "artist",
      "uri" : "spotify:artist:7tYKF4w9nC0nq9CsPZTHyP"
    } ],
  "disc_number" : 1,
    "duration_ms" : 117773,
    "explicit" : true,
    "external_urls" : {
      "spotify" : "https://open.spotify.com/track/5xMw6qCcpd2gBXPGTegC4W"
    },
    "href" : "https://api.spotify.com/v1/tracks/5xMw6qCcpd2gBXPGTegC4W",
    "id" : "5xMw6qCcpd2gBXPGTegC4W",
    "is_local" : false,
    "name" : "SOS",
    "preview_url" : "https://p.scdn.co/mp3-preview/0d91430a4a328573f8e4630bdca40d9d9b1dc160?cid=90ccb367fd954d3fbd50187031285f39",
    "track_number" : 1,
    "type" : "track",
    "uri" : "spotify:track:5xMw6qCcpd2gBXPGTegC4W"
  }, {
    "artists" : [ {
      "external_urls" : {
        "spotify" : "https://open.spotify.com/artist/7tYKF4w9nC0nq9CsPZTHyP"
      },
      "href" : "https://api.spotify.com/v1/artists/7tYKF4w9nC0nq9CsPZTHyP",
      "id" : "7tYKF4w9nC0nq9CsPZTHyP",
      "name" : "SZA",
      "type" : "artist",
      "uri" : "spotify:artist:7tYKF4w9nC0nq9CsPZTHyP"
    } ],
  "disc_number" : 1,
    "duration_ms" : 153946,
    "explicit" : false,
    "external_urls" : {
      "spotify" : "https://open.spotify.com/track/3OHfY25tqY28d16oZczHc8"
    },
    "href" : "https://api.spotify.com/v1/tracks/3OHfY25tqY28d16oZczHc8",
    "id" : "3OHfY25tqY28d16oZczHc8",
    "is_local" : false,
    "name" : "Kill Bill",
    "preview_url" : "https://p.scdn.co/mp3-preview/49dfe4ea78c5d3c5d2923d4a34c50fc4709855cb?cid=90ccb367fd954d3fbd50187031285f39",
    "track_number" : 2,
    "type" : "track",
    "uri" : "spotify:track:3OHfY25tqY28d16oZczHc8"
  }, {
    "artists" : [ {
      "external_urls" : {
        "spotify" : "https://open.spotify.com/artist/7tYKF4w9nC0nq9CsPZTHyP"
      },
      "href" : "https://api.spotify.com/v1/artists/7tYKF4w9nC0nq9CsPZTHyP",
      "id" : "7tYKF4w9nC0nq9CsPZTHyP",
      "name" : "SZA",
      "type" : "artist",
      "uri" : "spotify:artist:7tYKF4w9nC0nq9CsPZTHyP"
    } ],
  "disc_number" : 1,
    "duration_ms" : 203733,
    "explicit" : true,
    "external_urls" : {
      "spotify" : "https://open.spotify.com/track/6eT2V7nKXyMf47TwPbtgAD"
    },
    "href" : "https://api.spotify.com/v1/tracks/6eT2V7nKXyMf47TwPbtgAD",
    "id" : "6eT2V7nKXyMf47TwPbtgAD",
    "is_local" : false,
    "name" : "Seek & Destroy",
    "preview_url" : "https://p.scdn.co/mp3-preview/8a5d798429120b44f38d185bae23589f744ec444?cid=90ccb367fd954d3fbd50187031285f39",
    "track_number" : 3,
    "type" : "track",
    "uri" : "spotify:track:6eT2V7nKXyMf47TwPbtgAD"
  }, {
    "artists" : [ {
      "external_urls" : {
        "spotify" : "https://open.spotify.com/artist/7tYKF4w9nC0nq9CsPZTHyP"
      },
      "href" : "https://api.spotify.com/v1/artists/7tYKF4w9nC0nq9CsPZTHyP",
      "id" : "7tYKF4w9nC0nq9CsPZTHyP",
      "name" : "SZA",
      "type" : "artist",
      "uri" : "spotify:artist:7tYKF4w9nC0nq9CsPZTHyP"
    } ],
  "disc_number" : 1,
    "duration_ms" : 181080,
    "explicit" : true,
    "external_urls" : {
      "spotify" : "https://open.spotify.com/track/2GAhgAjOhEmItWLfgisyOn"
    },
    "href" : "https://api.spotify.com/v1/tracks/2GAhgAjOhEmItWLfgisyOn",
    "id" : "2GAhgAjOhEmItWLfgisyOn",
    "is_local" : false,
    "name" : "Low",
    "preview_url" : "https://p.scdn.co/mp3-preview/5b6dd5a1d06d0bdfd57382a584cbf0227b4d9a4b?cid=90ccb367fd954d3fbd50187031285f39",
    "track_number" : 4,
    "type" : "track",
    "uri" : "spotify:track:2GAhgAjOhEmItWLfgisyOn"
  }, {
    "artists" : [ {
      "external_urls" : {
        "spotify" : "https://open.spotify.com/artist/7tYKF4w9nC0nq9CsPZTHyP"
      },
      "href" : "https://api.spotify.com/v1/artists/7tYKF4w9nC0nq9CsPZTHyP",
      "id" : "7tYKF4w9nC0nq9CsPZTHyP",
      "name" : "SZA",
      "type" : "artist",
      "uri" : "spotify:artist:7tYKF4w9nC0nq9CsPZTHyP"
    } ],
  "disc_number" : 1,
    "duration_ms" : 183893,
    "explicit" : true,
    "external_urls" : {
      "spotify" : "https://open.spotify.com/track/1eIXYZWEfJO3Na2LCCnIJE"
    },
    "href" : "https://api.spotify.com/v1/tracks/1eIXYZWEfJO3Na2LCCnIJE",
    "id" : "1eIXYZWEfJO3Na2LCCnIJE",
    "is_local" : false,
    "name" : "Love Language",
    "preview_url" : "https://p.scdn.co/mp3-preview/63864d747e5d3fb98cc31186d5e8440d53a165e8?cid=90ccb367fd954d3fbd50187031285f39",
    "track_number" : 5,
    "type" : "track",
    "uri" : "spotify:track:1eIXYZWEfJO3Na2LCCnIJE"
  }, {
    "artists" : [ {
      "external_urls" : {
        "spotify" : "https://open.spotify.com/artist/7tYKF4w9nC0nq9CsPZTHyP"
      },
      "href" : "https://api.spotify.com/v1/artists/7tYKF4w9nC0nq9CsPZTHyP",
      "id" : "7tYKF4w9nC0nq9CsPZTHyP",
      "name" : "SZA",
      "type" : "artist",
      "uri" : "spotify:artist:7tYKF4w9nC0nq9CsPZTHyP"
    } ],
  "disc_number" : 1,
    "duration_ms" : 150720,
    "explicit" : true,
    "external_urls" : {
      "spotify" : "https://open.spotify.com/track/2CSRrnOEELmhpq8iaAi9cd"
    },
    "href" : "https://api.spotify.com/v1/tracks/2CSRrnOEELmhpq8iaAi9cd",
    "id" : "2CSRrnOEELmhpq8iaAi9cd",
    "is_local" : false,
    "name" : "Blind",
    "preview_url" : "https://p.scdn.co/mp3-preview/56cd00fd7aa857bd25e4ed25aebc0e41a24bfd4f?cid=90ccb367fd954d3fbd50187031285f39",
    "track_number" : 6,
    "type" : "track",
    "uri" : "spotify:track:2CSRrnOEELmhpq8iaAi9cd"
  }, {
    "artists" : [ {
      "external_urls" : {
        "spotify" : "https://open.spotify.com/artist/7tYKF4w9nC0nq9CsPZTHyP"
      },
      "href" : "https://api.spotify.com/v1/artists/7tYKF4w9nC0nq9CsPZTHyP",
      "id" : "7tYKF4w9nC0nq9CsPZTHyP",
      "name" : "SZA",
      "type" : "artist",
      "uri" : "spotify:artist:7tYKF4w9nC0nq9CsPZTHyP"
    }, {
      "external_urls" : {
        "spotify" : "https://open.spotify.com/artist/4Gso3d4CscCijv0lmajZWs"
      },
      "href" : "https://api.spotify.com/v1/artists/4Gso3d4CscCijv0lmajZWs",
      "id" : "4Gso3d4CscCijv0lmajZWs",
      "name" : "Don Toliver",
      "type" : "artist",
      "uri" : "spotify:artist:4Gso3d4CscCijv0lmajZWs"
    } ],
  "disc_number" : 1,
    "duration_ms" : 146950,
    "explicit" : false,
    "external_urls" : {
      "spotify" : "https://open.spotify.com/track/1TweDM3JC49LNeelLVg3yX"
    },
    "href" : "https://api.spotify.com/v1/tracks/1TweDM3JC49LNeelLVg3yX",
    "id" : "1TweDM3JC49LNeelLVg3yX",
    "is_local" : false,
    "name" : "Used (feat. Don Toliver)",
    "preview_url" : "https://p.scdn.co/mp3-preview/d09fca8423bfaaa8ca282f513a1c8710cec64531?cid=90ccb367fd954d3fbd50187031285f39",
    "track_number" : 7,
    "type" : "track",
    "uri" : "spotify:track:1TweDM3JC49LNeelLVg3yX"
  }, {
    "artists" : [ {
      "external_urls" : {
        "spotify" : "https://open.spotify.com/artist/7tYKF4w9nC0nq9CsPZTHyP"
      },
      "href" : "https://api.spotify.com/v1/artists/7tYKF4w9nC0nq9CsPZTHyP",
      "id" : "7tYKF4w9nC0nq9CsPZTHyP",
      "name" : "SZA",
      "type" : "artist",
      "uri" : "spotify:artist:7tYKF4w9nC0nq9CsPZTHyP"
    } ],
  "disc_number" : 1,
    "duration_ms" : 201800,
    "explicit" : true,
    "external_urls" : {
      "spotify" : "https://open.spotify.com/track/4iZ4pt7kvcaH6Yo8UoZ4s2"
    },
    "href" : "https://api.spotify.com/v1/tracks/4iZ4pt7kvcaH6Yo8UoZ4s2",
    "id" : "4iZ4pt7kvcaH6Yo8UoZ4s2",
    "is_local" : false,
    "name" : "Snooze",
    "preview_url" : "https://p.scdn.co/mp3-preview/8c53920b5fd2c3178afa36cac9eec68b5ee9204a?cid=90ccb367fd954d3fbd50187031285f39",
    "track_number" : 8,
    "type" : "track",
    "uri" : "spotify:track:4iZ4pt7kvcaH6Yo8UoZ4s2"
  }, {
    "artists" : [ {
      "external_urls" : {
        "spotify" : "https://open.spotify.com/artist/7tYKF4w9nC0nq9CsPZTHyP"
      },
      "href" : "https://api.spotify.com/v1/artists/7tYKF4w9nC0nq9CsPZTHyP",
      "id" : "7tYKF4w9nC0nq9CsPZTHyP",
      "name" : "SZA",
      "type" : "artist",
      "uri" : "spotify:artist:7tYKF4w9nC0nq9CsPZTHyP"
    } ],
  "disc_number" : 1,
    "duration_ms" : 160920,
    "explicit" : true,
    "external_urls" : {
      "spotify" : "https://open.spotify.com/track/4fnNBPN9W6AoOYSQS3FJxT"
    },
    "href" : "https://api.spotify.com/v1/tracks/4fnNBPN9W6AoOYSQS3FJxT",
    "id" : "4fnNBPN9W6AoOYSQS3FJxT",
    "is_local" : false,
    "name" : "Notice Me",
    "preview_url" : "https://p.scdn.co/mp3-preview/8d132551c4cac4b1fdff6c912ca10cf75973b83f?cid=90ccb367fd954d3fbd50187031285f39",
    "track_number" : 9,
    "type" : "track",
    "uri" : "spotify:track:4fnNBPN9W6AoOYSQS3FJxT"
  }, {
    "artists" : [ {
      "external_urls" : {
        "spotify" : "https://open.spotify.com/artist/7tYKF4w9nC0nq9CsPZTHyP"
      },
      "href" : "https://api.spotify.com/v1/artists/7tYKF4w9nC0nq9CsPZTHyP",
      "id" : "7tYKF4w9nC0nq9CsPZTHyP",
      "name" : "SZA",
      "type" : "artist",
      "uri" : "spotify:artist:7tYKF4w9nC0nq9CsPZTHyP"
    } ],
  "disc_number" : 1,
    "duration_ms" : 244026,
    "explicit" : true,
    "external_urls" : {
      "spotify" : "https://open.spotify.com/track/2Sjx8DWZO5zaTyTAmgo2gY"
    },
    "href" : "https://api.spotify.com/v1/tracks/2Sjx8DWZO5zaTyTAmgo2gY",
    "id" : "2Sjx8DWZO5zaTyTAmgo2gY",
    "is_local" : false,
    "name" : "Gone Girl",
    "preview_url" : "https://p.scdn.co/mp3-preview/7b5380eb839673c896be8fda738cb590c99994b5?cid=90ccb367fd954d3fbd50187031285f39",
    "track_number" : 10,
    "type" : "track",
    "uri" : "spotify:track:2Sjx8DWZO5zaTyTAmgo2gY"
  }, {
    "artists" : [ {
      "external_urls" : {
        "spotify" : "https://open.spotify.com/artist/7tYKF4w9nC0nq9CsPZTHyP"
      },
      "href" : "https://api.spotify.com/v1/artists/7tYKF4w9nC0nq9CsPZTHyP",
      "id" : "7tYKF4w9nC0nq9CsPZTHyP",
      "name" : "SZA",
      "type" : "artist",
      "uri" : "spotify:artist:7tYKF4w9nC0nq9CsPZTHyP"
    } ],
  "disc_number" : 1,
    "duration_ms" : 83826,
    "explicit" : true,
    "external_urls" : {
      "spotify" : "https://open.spotify.com/track/4jTs7ny5eSRnKTzxdrFv5I"
    },
    "href" : "https://api.spotify.com/v1/tracks/4jTs7ny5eSRnKTzxdrFv5I",
    "id" : "4jTs7ny5eSRnKTzxdrFv5I",
    "is_local" : false,
    "name" : "Smoking on my Ex Pack",
    "preview_url" : "https://p.scdn.co/mp3-preview/86963023df7c2d8580ee5af64f25ec40f00370e1?cid=90ccb367fd954d3fbd50187031285f39",
    "track_number" : 11,
    "type" : "track",
    "uri" : "spotify:track:4jTs7ny5eSRnKTzxdrFv5I"
  }, {
    "artists" : [ {
      "external_urls" : {
        "spotify" : "https://open.spotify.com/artist/7tYKF4w9nC0nq9CsPZTHyP"
      },
      "href" : "https://api.spotify.com/v1/artists/7tYKF4w9nC0nq9CsPZTHyP",
      "id" : "7tYKF4w9nC0nq9CsPZTHyP",
      "name" : "SZA",
      "type" : "artist",
      "uri" : "spotify:artist:7tYKF4w9nC0nq9CsPZTHyP"
    }, {
      "external_urls" : {
        "spotify" : "https://open.spotify.com/artist/1r1uxoy19fzMxunt3ONAkG"
      },
      "href" : "https://api.spotify.com/v1/artists/1r1uxoy19fzMxunt3ONAkG",
      "id" : "1r1uxoy19fzMxunt3ONAkG",
      "name" : "Phoebe Bridgers",
      "type" : "artist",
      "uri" : "spotify:artist:1r1uxoy19fzMxunt3ONAkG"
    } ],
  "disc_number" : 1,
    "duration_ms" : 218586,
    "explicit" : true,
    "external_urls" : {
      "spotify" : "https://open.spotify.com/track/4h5x3XHLVYFJaItKuO2rhy"
    },
    "href" : "https://api.spotify.com/v1/tracks/4h5x3XHLVYFJaItKuO2rhy",
    "id" : "4h5x3XHLVYFJaItKuO2rhy",
    "is_local" : false,
    "name" : "Ghost in the Machine",
    "preview_url" : "https://p.scdn.co/mp3-preview/e2ea708466b9417bf2cc2892fee910817b19ee21?cid=90ccb367fd954d3fbd50187031285f39",
    "track_number" : 12,
    "type" : "track",
    "uri" : "spotify:track:4h5x3XHLVYFJaItKuO2rhy"
  }, {
    "artists" : [ {
      "external_urls" : {
        "spotify" : "https://open.spotify.com/artist/7tYKF4w9nC0nq9CsPZTHyP"
      },
      "href" : "https://api.spotify.com/v1/artists/7tYKF4w9nC0nq9CsPZTHyP",
      "id" : "7tYKF4w9nC0nq9CsPZTHyP",
      "name" : "SZA",
      "type" : "artist",
      "uri" : "spotify:artist:7tYKF4w9nC0nq9CsPZTHyP"
    } ],
  "disc_number" : 1,
    "duration_ms" : 185040,
    "explicit" : true,
    "external_urls" : {
      "spotify" : "https://open.spotify.com/track/2e2AXpIiJpet5b4qg85Gh6"
    },
    "href" : "https://api.spotify.com/v1/tracks/2e2AXpIiJpet5b4qg85Gh6",
    "id" : "2e2AXpIiJpet5b4qg85Gh6",
    "is_local" : false,
    "name" : "F2F",
    "preview_url" : "https://p.scdn.co/mp3-preview/eb9f4f5391012f17530722685b28ede4d9297548?cid=90ccb367fd954d3fbd50187031285f39",
    "track_number" : 13,
    "type" : "track",
    "uri" : "spotify:track:2e2AXpIiJpet5b4qg85Gh6"
  }, {
    "artists" : [ {
      "external_urls" : {
        "spotify" : "https://open.spotify.com/artist/7tYKF4w9nC0nq9CsPZTHyP"
      },
      "href" : "https://api.spotify.com/v1/artists/7tYKF4w9nC0nq9CsPZTHyP",
      "id" : "7tYKF4w9nC0nq9CsPZTHyP",
      "name" : "SZA",
      "type" : "artist",
      "uri" : "spotify:artist:7tYKF4w9nC0nq9CsPZTHyP"
    } ],
  "disc_number" : 1,
    "duration_ms" : 180853,
    "explicit" : true,
    "external_urls" : {
      "spotify" : "https://open.spotify.com/track/5Y35SjAfXjjG0sFQ3KOxmm"
    },
    "href" : "https://api.spotify.com/v1/tracks/5Y35SjAfXjjG0sFQ3KOxmm",
    "id" : "5Y35SjAfXjjG0sFQ3KOxmm",
    "is_local" : false,
    "name" : "Nobody Gets Me",
    "preview_url" : "https://p.scdn.co/mp3-preview/36cfe8fbfb78aa38ca3b222c4b9fc88cda992841?cid=90ccb367fd954d3fbd50187031285f39",
    "track_number" : 14,
    "type" : "track",
    "uri" : "spotify:track:5Y35SjAfXjjG0sFQ3KOxmm"
  }, {
    "artists" : [ {
      "external_urls" : {
        "spotify" : "https://open.spotify.com/artist/7tYKF4w9nC0nq9CsPZTHyP"
      },
      "href" : "https://api.spotify.com/v1/artists/7tYKF4w9nC0nq9CsPZTHyP",
      "id" : "7tYKF4w9nC0nq9CsPZTHyP",
      "name" : "SZA",
      "type" : "artist",
      "uri" : "spotify:artist:7tYKF4w9nC0nq9CsPZTHyP"
    } ],
  "disc_number" : 1,
    "duration_ms" : 151413,
    "explicit" : true,
    "external_urls" : {
      "spotify" : "https://open.spotify.com/track/4hTej08FutmriOs7S1hWWy"
    },
    "href" : "https://api.spotify.com/v1/tracks/4hTej08FutmriOs7S1hWWy",
    "id" : "4hTej08FutmriOs7S1hWWy",
    "is_local" : false,
    "name" : "Conceited",
    "preview_url" : "https://p.scdn.co/mp3-preview/ce04ee8526a716d04d86ca7e94d2d69a5ca42afd?cid=90ccb367fd954d3fbd50187031285f39",
    "track_number" : 15,
    "type" : "track",
    "uri" : "spotify:track:4hTej08FutmriOs7S1hWWy"
  }, {
    "artists" : [ {
      "external_urls" : {
        "spotify" : "https://open.spotify.com/artist/7tYKF4w9nC0nq9CsPZTHyP"
      },
      "href" : "https://api.spotify.com/v1/artists/7tYKF4w9nC0nq9CsPZTHyP",
      "id" : "7tYKF4w9nC0nq9CsPZTHyP",
      "name" : "SZA",
      "type" : "artist",
      "uri" : "spotify:artist:7tYKF4w9nC0nq9CsPZTHyP"
    } ],
  "disc_number" : 1,
    "duration_ms" : 158840,
    "explicit" : true,
    "external_urls" : {
      "spotify" : "https://open.spotify.com/track/6RQ5IwG7uADz9LDWliJGjU"
    },
    "href" : "https://api.spotify.com/v1/tracks/6RQ5IwG7uADz9LDWliJGjU",
    "id" : "6RQ5IwG7uADz9LDWliJGjU",
    "is_local" : false,
    "name" : "Special",
    "preview_url" : "https://p.scdn.co/mp3-preview/19f2613c558681fc774cb68d9c834bce3d1e8877?cid=90ccb367fd954d3fbd50187031285f39",
    "track_number" : 16,
    "type" : "track",
    "uri" : "spotify:track:6RQ5IwG7uADz9LDWliJGjU"
  }, {
    "artists" : [ {
      "external_urls" : {
        "spotify" : "https://open.spotify.com/artist/7tYKF4w9nC0nq9CsPZTHyP"
      },
      "href" : "https://api.spotify.com/v1/artists/7tYKF4w9nC0nq9CsPZTHyP",
      "id" : "7tYKF4w9nC0nq9CsPZTHyP",
      "name" : "SZA",
      "type" : "artist",
      "uri" : "spotify:artist:7tYKF4w9nC0nq9CsPZTHyP"
    } ],
  "disc_number" : 1,
    "duration_ms" : 164426,
    "explicit" : false,
    "external_urls" : {
      "spotify" : "https://open.spotify.com/track/4rAg5bbrdZX00mXXhLvYXj"
    },
    "href" : "https://api.spotify.com/v1/tracks/4rAg5bbrdZX00mXXhLvYXj",
    "id" : "4rAg5bbrdZX00mXXhLvYXj",
    "is_local" : false,
    "name" : "Too Late",
    "preview_url" : "https://p.scdn.co/mp3-preview/cfd6bdd6babe9cead7864fc74f451307b38423e4?cid=90ccb367fd954d3fbd50187031285f39",
    "track_number" : 17,
    "type" : "track",
    "uri" : "spotify:track:4rAg5bbrdZX00mXXhLvYXj"
  }, {
    "artists" : [ {
      "external_urls" : {
        "spotify" : "https://open.spotify.com/artist/7tYKF4w9nC0nq9CsPZTHyP"
      },
      "href" : "https://api.spotify.com/v1/artists/7tYKF4w9nC0nq9CsPZTHyP",
      "id" : "7tYKF4w9nC0nq9CsPZTHyP",
      "name" : "SZA",
      "type" : "artist",
      "uri" : "spotify:artist:7tYKF4w9nC0nq9CsPZTHyP"
    } ],
  "disc_number" : 1,
    "duration_ms" : 180680,
    "explicit" : true,
    "external_urls" : {
      "spotify" : "https://open.spotify.com/track/74NI58MQexwZjNu1Gu6GjT"
    },
    "href" : "https://api.spotify.com/v1/tracks/74NI58MQexwZjNu1Gu6GjT",
    "id" : "74NI58MQexwZjNu1Gu6GjT",
    "is_local" : false,
    "name" : "Far",
    "preview_url" : "https://p.scdn.co/mp3-preview/c142658a1f57ff42291d05f99c5f6886810321cf?cid=90ccb367fd954d3fbd50187031285f39",
    "track_number" : 18,
    "type" : "track",
    "uri" : "spotify:track:74NI58MQexwZjNu1Gu6GjT"
  }, {
    "artists" : [ {
      "external_urls" : {
        "spotify" : "https://open.spotify.com/artist/7tYKF4w9nC0nq9CsPZTHyP"
      },
      "href" : "https://api.spotify.com/v1/artists/7tYKF4w9nC0nq9CsPZTHyP",
      "id" : "7tYKF4w9nC0nq9CsPZTHyP",
      "name" : "SZA",
      "type" : "artist",
      "uri" : "spotify:artist:7tYKF4w9nC0nq9CsPZTHyP"
    } ],
  "disc_number" : 1,
    "duration_ms" : 181840,
    "explicit" : true,
    "external_urls" : {
      "spotify" : "https://open.spotify.com/track/2wSTnntOPRi7aQneobFtU4"
    },
    "href" : "https://api.spotify.com/v1/tracks/2wSTnntOPRi7aQneobFtU4",
    "id" : "2wSTnntOPRi7aQneobFtU4",
    "is_local" : false,
    "name" : "Shirt",
    "preview_url" : "https://p.scdn.co/mp3-preview/8819fb0dc127d1d777a776f4d1186be783334ae5?cid=90ccb367fd954d3fbd50187031285f39",
    "track_number" : 19,
    "type" : "track",
    "uri" : "spotify:track:2wSTnntOPRi7aQneobFtU4"
  }, {
    "artists" : [ {
      "external_urls" : {
        "spotify" : "https://open.spotify.com/artist/7tYKF4w9nC0nq9CsPZTHyP"
      },
      "href" : "https://api.spotify.com/v1/artists/7tYKF4w9nC0nq9CsPZTHyP",
      "id" : "7tYKF4w9nC0nq9CsPZTHyP",
      "name" : "SZA",
      "type" : "artist",
      "uri" : "spotify:artist:7tYKF4w9nC0nq9CsPZTHyP"
    }, {
      "external_urls" : {
        "spotify" : "https://open.spotify.com/artist/0Y5tJX1MQlPlqiwlOH1tJY"
      },
      "href" : "https://api.spotify.com/v1/artists/0Y5tJX1MQlPlqiwlOH1tJY",
      "id" : "0Y5tJX1MQlPlqiwlOH1tJY",
      "name" : "Travis Scott",
      "type" : "artist",
      "uri" : "spotify:artist:0Y5tJX1MQlPlqiwlOH1tJY"
    } ],
  "disc_number" : 1,
    "duration_ms" : 239613,
    "explicit" : false,
    "external_urls" : {
      "spotify" : "https://open.spotify.com/track/0xaFw2zDYf1rIJWl2dXiSF"
    },
    "href" : "https://api.spotify.com/v1/tracks/0xaFw2zDYf1rIJWl2dXiSF",
    "id" : "0xaFw2zDYf1rIJWl2dXiSF",
    "is_local" : false,
    "name" : "Open Arms (feat. Travis Scott)",
    "preview_url" : "https://p.scdn.co/mp3-preview/13f76ff738fcb47ae54529c427d35bf4729db55e?cid=90ccb367fd954d3fbd50187031285f39",
    "track_number" : 20,
    "type" : "track",
    "uri" : "spotify:track:0xaFw2zDYf1rIJWl2dXiSF"
  } ],
  "limit" : 20,
  "next" : "https://api.spotify.com/v1/albums/07w0rG5TETcyihsEIZR3qG/tracks?offset=20&limit=20",
  "offset" : 0,
  "previous" : null,
  "total" : 23
}